Introduction to R
…
Recreate 3

A

Create this dataset:

Keywords: factor, parse_number (Note: regular expression can be used here if youre familiar!)

## # A tibble: 80 x 5
## # Groups:   irsad_dec_num, sex, age [?]
##    irsad_dec_num sex    age         inst_group     n
##            <dbl> <chr>  <chr>       <chr>      <dbl>
##  1             1 Female 15-19 years university  4810
##  2             1 Female 15-19 years vet         3871
##  3             1 Female 20-24 years university 10086
##  4             1 Female 20-24 years vet         5096
##  5             1 Male   15-19 years university  3189
##  6             1 Male   15-19 years vet         3982
##  7             1 Male   20-24 years university  8081
##  8             1 Male   20-24 years vet         4584
##  9             2 Female 15-19 years university  6436
## 10             2 Female 15-19 years vet         3923
## #  with 70 more rows
…
